{
  "facebook-token": {
    "provider": "facebook",
    "module": "passport-facebook-token",
    "clientID": "6e43c5e50a0b59637825ddde8a80255f",
    "clientSecret": "461c5ad886bafe1c807f4e929389c22e",
    "callbackPath": "/auth/facebook/token",
    "failureFlash": true,
    "strategy": "FBTokenMobileStrategy",
    "json": true,
    "session": false
  }
}
