{
  "name": "Requestfordriver",
  "base": "PersistedModel",
  "idInjection": true,
  "options": {
    "validateUpsert": true
  },
  "mixins": {
    "Aggregate": true
  },
  "properties": {
    "status": {
      "type": "string"
    }
  },
  "validations": [],
  "relations": {
    "owner": {
      "type": "belongsTo",
      "model": "People",
      "foreignKey": ""
    },
    "vehicle": {
      "type": "belongsTo",
      "model": "Vehicle",
      "foreignKey": ""
    },
    "vehicleType": {
      "type": "belongsTo",
      "model": "VehicleType",
      "foreignKey": ""
    },
    "driver": {
      "type": "belongsTo",
      "model": "People",
      "foreignKey": ""
    }
  },
  "acls": [
    {
      "accessType": "*",
      "principalType": "ROLE",
      "principalId": "$everyone",
      "permission": "DENY"
    },
    {
      "accessType": "EXECUTE",
      "principalType": "ROLE",
      "principalId": "$everyone",
      "permission": "ALLOW",
      "property": "find"
    },
    {
      "accessType": "EXECUTE",
      "principalType": "ROLE",
      "principalId": "$authenticated",
      "permission": "ALLOW",
      "property": "makeRequest"
    },
    {
      "accessType": "EXECUTE",
      "principalType": "ROLE",
      "principalId": "$authenticated",
      "permission": "ALLOW",
      "property": "confirmByDriver"
    },
    {
      "accessType": "EXECUTE",
      "principalType": "ROLE",
      "principalId": "$authenticated",
      "permission": "ALLOW",
      "property": "removeVehicle"
    },
    {
      "accessType": "EXECUTE",
      "principalType": "ROLE",
      "principalId": "$authenticated",
      "permission": "ALLOW",
      "property": "getRequests"
    },
    {
      "accessType": "EXECUTE",
      "principalType": "ROLE",
      "principalId": "$authenticated",
      "permission": "ALLOW",
      "property": "rejectByDriver"
    }
  ],
  "methods": {}
}
