{
  "db1": {
    "name": "db1",
    "connector": "memory"
  },
  "db": {
    "database": "BebaMzigo",
    "name": "db",
    "connector": "mongodb"
  },
  "Myfile": {
    "name": "Myfile",
    "connector": "loopback-component-storage",
    "provider": "filesystem",
    "root": "bebamzigo/server/storage",
    "maxFileSize": "10485760"
  },
  "Email": {
    "name": "Email",
    "connector": "mail",
    "transports": [
      {
        "type": "SMTP",
        "host": "smtp.gmail.com",
        "secure": true,
        "port": 465,
        "tls": {
          "rejectUnauthorized": false
        },
        "auth": {
          "user": "beba@mybebamzigo.com",
          "pass": "#Outcomes1"
        }
      }
    ]
  }
}
